EESchema Schematic File Version 4
EELAYER 30 0
EELAYER END
$Descr A4 11693 8268
encoding utf-8
Sheet 1 1
Title ""
Date ""
Rev ""
Comp ""
Comment1 ""
Comment2 ""
Comment3 ""
Comment4 ""
$EndDescr
$Comp
L badgelife_shitty_addon_v169bis:Badgelife_sao_connector_v169bis X1
U 1 1 5E1FE3DB
P 1500 6700
F 0 "X1" V 1035 6700 50  0000 C CNN
F 1 "Badgelife_sao_connector_v169bis" V 1126 6700 50  0000 C CNN
F 2 "badgelife_sao_v169bis:Badgelife-SAOv169-BADGE-2x3" H 1500 6900 50  0001 C CNN
F 3 "" H 1500 6900 50  0001 C CNN
	1    1500 6700
	0    1    1    0   
$EndComp
$Comp
L badgelife_shitty_addon_v169bis:Badgelife_sao_connector_v169bis X2
U 1 1 5E1FF4EF
P 3650 6700
F 0 "X2" V 3185 6700 50  0000 C CNN
F 1 "Badgelife_sao_connector_v169bis" V 3276 6700 50  0000 C CNN
F 2 "badgelife_sao_v169bis:Badgelife-SAOv169-BADGE-2x3" H 3650 6900 50  0001 C CNN
F 3 "" H 3650 6900 50  0001 C CNN
	1    3650 6700
	0    1    1    0   
$EndComp
Text GLabel 2250 6700 2    39   BiDi ~ 0
SDA
Wire Wire Line
	750  6700 950  6700
Text GLabel 750  6700 0    39   BiDi ~ 0
SCL
Wire Wire Line
	2250 6700 2050 6700
Text GLabel 4400 6700 2    39   BiDi ~ 0
SDA
Wire Wire Line
	2900 6700 3100 6700
Text GLabel 2900 6700 0    39   BiDi ~ 0
SCL
Wire Wire Line
	4400 6700 4200 6700
Text GLabel 750  6900 0    39   BiDi ~ 0
TX
Wire Wire Line
	750  6900 950  6900
Text GLabel 2250 6900 2    39   BiDi ~ 0
RX
Wire Wire Line
	2250 6900 2050 6900
$Comp
L power:+3.3V #PWR02
U 1 1 5E1CC997
P 2150 6150
F 0 "#PWR02" H 2150 6000 50  0001 C CNN
F 1 "+3.3V" H 2165 6323 50  0000 C CNN
F 2 "" H 2150 6150 50  0001 C CNN
F 3 "" H 2150 6150 50  0001 C CNN
	1    2150 6150
	1    0    0    -1  
$EndComp
Wire Wire Line
	2150 6150 2150 6500
Wire Wire Line
	2150 6500 2050 6500
$Comp
L power:+3.3V #PWR07
U 1 1 5E1CEF12
P 4300 6150
F 0 "#PWR07" H 4300 6000 50  0001 C CNN
F 1 "+3.3V" H 4315 6323 50  0000 C CNN
F 2 "" H 4300 6150 50  0001 C CNN
F 3 "" H 4300 6150 50  0001 C CNN
	1    4300 6150
	1    0    0    -1  
$EndComp
Wire Wire Line
	4300 6150 4300 6500
Wire Wire Line
	4300 6500 4200 6500
$Comp
L power:GND #PWR01
U 1 1 5E1D173C
P 850 7100
F 0 "#PWR01" H 850 6850 50  0001 C CNN
F 1 "GND" H 855 6927 50  0000 C CNN
F 2 "" H 850 7100 50  0001 C CNN
F 3 "" H 850 7100 50  0001 C CNN
	1    850  7100
	1    0    0    -1  
$EndComp
Wire Wire Line
	950  6500 850  6500
Wire Wire Line
	850  6500 850  7100
Wire Wire Line
	3100 6500 3000 6500
Wire Wire Line
	3000 6500 3000 7100
$Comp
L power:GND #PWR05
U 1 1 5E1D8AED
P 3000 7100
F 0 "#PWR05" H 3000 6850 50  0001 C CNN
F 1 "GND" H 3005 6927 50  0000 C CNN
F 2 "" H 3000 7100 50  0001 C CNN
F 3 "" H 3000 7100 50  0001 C CNN
	1    3000 7100
	1    0    0    -1  
$EndComp
$Comp
L power:+3.3V #PWR03
U 1 1 5E200EDE
P 2250 950
F 0 "#PWR03" H 2250 800 50  0001 C CNN
F 1 "+3.3V" H 2265 1123 50  0000 C CNN
F 2 "" H 2250 950 50  0001 C CNN
F 3 "" H 2250 950 50  0001 C CNN
	1    2250 950 
	1    0    0    -1  
$EndComp
Text GLabel 4400 6900 2    39   BiDi ~ 0
GPIO1
Wire Wire Line
	4400 6900 4200 6900
Text GLabel 2900 6900 0    39   BiDi ~ 0
GPIO2
Wire Wire Line
	2900 6900 3100 6900
Wire Wire Line
	2150 2400 2150 2600
Wire Wire Line
	2150 2600 2450 2600
$Comp
L power:+BATT #PWR0103
U 1 1 5E3FA4DB
P 2150 2400
F 0 "#PWR0103" H 2150 2250 50  0001 C CNN
F 1 "+BATT" H 2165 2573 50  0000 C CNN
F 2 "" H 2150 2400 50  0001 C CNN
F 3 "" H 2150 2400 50  0001 C CNN
	1    2150 2400
	1    0    0    -1  
$EndComp
Wire Wire Line
	1150 1450 1150 1600
$Comp
L power:+BATT #PWR0102
U 1 1 5E3F34AF
P 1150 1450
F 0 "#PWR0102" H 1150 1300 50  0001 C CNN
F 1 "+BATT" H 1165 1623 50  0000 C CNN
F 2 "" H 1150 1450 50  0001 C CNN
F 3 "" H 1150 1450 50  0001 C CNN
	1    1150 1450
	1    0    0    -1  
$EndComp
Wire Wire Line
	1150 2000 1150 2100
$Comp
L power:GND #PWR0101
U 1 1 5E3E76DC
P 1150 2100
F 0 "#PWR0101" H 1150 1850 50  0001 C CNN
F 1 "GND" H 1155 1927 50  0000 C CNN
F 2 "" H 1150 2100 50  0001 C CNN
F 3 "" H 1150 2100 50  0001 C CNN
	1    1150 2100
	1    0    0    -1  
$EndComp
$Comp
L Device:Battery BT1
U 1 1 5E3E6145
P 1150 1800
F 0 "BT1" H 1258 1846 50  0000 L CNN
F 1 "Battery" H 1258 1755 50  0000 L CNN
F 2 "Resistor_SMD:R_1218_3246Metric_Pad1.22x4.75mm_HandSolder" V 1150 1860 50  0001 C CNN
F 3 "~" V 1150 1860 50  0001 C CNN
	1    1150 1800
	1    0    0    -1  
$EndComp
Wire Wire Line
	2250 950  2250 1300
Wire Wire Line
	3650 1900 3450 1900
Text GLabel 3650 1900 2    39   BiDi ~ 0
GPIO2
Wire Wire Line
	3650 1800 3450 1800
Text GLabel 3650 1800 2    39   BiDi ~ 0
GPIO1
Wire Wire Line
	3600 2300 3600 2800
Wire Wire Line
	3450 2300 3600 2300
$Comp
L power:GND #PWR06
U 1 1 5E207345
P 3600 2800
F 0 "#PWR06" H 3600 2550 50  0001 C CNN
F 1 "GND" H 3605 2627 50  0000 C CNN
F 2 "" H 3600 2800 50  0001 C CNN
F 3 "" H 3600 2800 50  0001 C CNN
	1    3600 2800
	1    0    0    -1  
$EndComp
Wire Wire Line
	2300 2500 2300 2800
Wire Wire Line
	2450 2500 2300 2500
$Comp
L power:GND #PWR04
U 1 1 5E203E6B
P 2300 2800
F 0 "#PWR04" H 2300 2550 50  0001 C CNN
F 1 "GND" H 2305 2627 50  0000 C CNN
F 2 "" H 2300 2800 50  0001 C CNN
F 3 "" H 2300 2800 50  0001 C CNN
	1    2300 2800
	1    0    0    -1  
$EndComp
Wire Wire Line
	2250 1300 2450 1300
Wire Wire Line
	3650 2500 3450 2500
Text GLabel 3650 2500 2    39   BiDi ~ 0
RX
Wire Wire Line
	3650 2600 3450 2600
Text GLabel 3650 2600 2    39   BiDi ~ 0
TX
Wire Wire Line
	2250 2000 2450 2000
Text GLabel 2250 2000 0    39   BiDi ~ 0
SCL
Wire Wire Line
	2250 1900 2450 1900
Text GLabel 2250 1900 0    39   BiDi ~ 0
SDA
$Comp
L badge_custom:ArduinoNano33 MOD1
U 1 1 5E189695
P 2450 1200
F 0 "MOD1" H 2950 1465 50  0000 C CNN
F 1 "ArduinoNano33" H 2950 1374 50  0000 C CNN
F 2 "badge_custom:arduinoNano33Breadboard" H 2450 -200 50  0001 C CNN
F 3 "" H 2450 -200 50  0001 C CNN
	1    2450 1200
	1    0    0    -1  
$EndComp
$Comp
L power:GND #PWR0104
U 1 1 5E363B31
P 2100 5100
F 0 "#PWR0104" H 2100 4850 50  0001 C CNN
F 1 "GND" H 2105 4927 50  0000 C CNN
F 2 "" H 2100 5100 50  0001 C CNN
F 3 "" H 2100 5100 50  0001 C CNN
	1    2100 5100
	1    0    0    -1  
$EndComp
Wire Wire Line
	2200 5050 2100 5050
Wire Wire Line
	2100 5050 2100 5100
Wire Wire Line
	2100 5050 2100 4950
Connection ~ 2100 5050
Wire Wire Line
	2100 3950 2200 3950
Wire Wire Line
	2200 4050 2100 4050
Connection ~ 2100 4050
Wire Wire Line
	2100 4050 2100 3950
Wire Wire Line
	2200 4150 2100 4150
Connection ~ 2100 4150
Wire Wire Line
	2100 4150 2100 4050
Wire Wire Line
	2200 4250 2100 4250
Connection ~ 2100 4250
Wire Wire Line
	2100 4250 2100 4150
Wire Wire Line
	2200 4350 2100 4350
Connection ~ 2100 4350
Wire Wire Line
	2100 4350 2100 4250
Wire Wire Line
	2200 4450 2100 4450
Connection ~ 2100 4450
Wire Wire Line
	2100 4450 2100 4350
Wire Wire Line
	2200 4550 2100 4550
Connection ~ 2100 4550
Wire Wire Line
	2100 4550 2100 4450
Wire Wire Line
	2200 4650 2100 4650
Connection ~ 2100 4650
Wire Wire Line
	2100 4650 2100 4550
Wire Wire Line
	2200 4750 2100 4750
Connection ~ 2100 4750
Wire Wire Line
	2100 4750 2100 4650
Wire Wire Line
	2200 4850 2100 4850
Connection ~ 2100 4850
Wire Wire Line
	2100 4850 2100 4750
Wire Wire Line
	2200 4950 2100 4950
Connection ~ 2100 4950
Wire Wire Line
	2100 4950 2100 4850
$Comp
L power:GND #PWR0105
U 1 1 5E440859
P 2700 5100
F 0 "#PWR0105" H 2700 4850 50  0001 C CNN
F 1 "GND" H 2705 4927 50  0000 C CNN
F 2 "" H 2700 5100 50  0001 C CNN
F 3 "" H 2700 5100 50  0001 C CNN
	1    2700 5100
	1    0    0    -1  
$EndComp
Wire Wire Line
	2800 5050 2700 5050
Wire Wire Line
	2700 5050 2700 5100
Wire Wire Line
	2700 5050 2700 4950
Connection ~ 2700 5050
Wire Wire Line
	2700 3950 2800 3950
Wire Wire Line
	2800 4050 2700 4050
Connection ~ 2700 4050
Wire Wire Line
	2700 4050 2700 3950
Wire Wire Line
	2800 4150 2700 4150
Connection ~ 2700 4150
Wire Wire Line
	2700 4150 2700 4050
Wire Wire Line
	2800 4250 2700 4250
Connection ~ 2700 4250
Wire Wire Line
	2700 4250 2700 4150
Wire Wire Line
	2800 4350 2700 4350
Connection ~ 2700 4350
Wire Wire Line
	2700 4350 2700 4250
Wire Wire Line
	2800 4450 2700 4450
Connection ~ 2700 4450
Wire Wire Line
	2700 4450 2700 4350
Wire Wire Line
	2800 4550 2700 4550
Connection ~ 2700 4550
Wire Wire Line
	2700 4550 2700 4450
Wire Wire Line
	2800 4650 2700 4650
Connection ~ 2700 4650
Wire Wire Line
	2700 4650 2700 4550
Wire Wire Line
	2800 4750 2700 4750
Connection ~ 2700 4750
Wire Wire Line
	2700 4750 2700 4650
Wire Wire Line
	2800 4850 2700 4850
Connection ~ 2700 4850
Wire Wire Line
	2700 4850 2700 4750
Wire Wire Line
	2800 4950 2700 4950
Connection ~ 2700 4950
Wire Wire Line
	2700 4950 2700 4850
Wire Wire Line
	950  3950 1050 3950
Wire Wire Line
	1050 4050 950  4050
Connection ~ 950  4050
Wire Wire Line
	950  4050 950  3950
Wire Wire Line
	1050 4150 950  4150
Connection ~ 950  4150
Wire Wire Line
	950  4150 950  4050
Wire Wire Line
	1050 4250 950  4250
Connection ~ 950  4250
Wire Wire Line
	950  4250 950  4150
Wire Wire Line
	1050 4350 950  4350
Connection ~ 950  4350
Wire Wire Line
	950  4350 950  4250
Wire Wire Line
	1050 4450 950  4450
Connection ~ 950  4450
Wire Wire Line
	950  4450 950  4350
Wire Wire Line
	1050 4550 950  4550
Connection ~ 950  4550
Wire Wire Line
	950  4550 950  4450
Wire Wire Line
	1050 4650 950  4650
Connection ~ 950  4650
Wire Wire Line
	950  4650 950  4550
Wire Wire Line
	1050 4750 950  4750
Connection ~ 950  4750
Wire Wire Line
	950  4750 950  4650
Wire Wire Line
	1050 4850 950  4850
Connection ~ 950  4850
Wire Wire Line
	950  4850 950  4750
Wire Wire Line
	950  4950 1050 4950
Connection ~ 950  4950
Wire Wire Line
	950  4950 950  4850
Wire Wire Line
	1050 5050 950  5050
Wire Wire Line
	950  5050 950  4950
Wire Wire Line
	1550 3950 1650 3950
Wire Wire Line
	1650 4050 1550 4050
Connection ~ 1550 4050
Wire Wire Line
	1550 4050 1550 3950
Wire Wire Line
	1650 4150 1550 4150
Connection ~ 1550 4150
Wire Wire Line
	1550 4150 1550 4050
Wire Wire Line
	1650 4250 1550 4250
Connection ~ 1550 4250
Wire Wire Line
	1550 4250 1550 4150
Wire Wire Line
	1650 4350 1550 4350
Connection ~ 1550 4350
Wire Wire Line
	1550 4350 1550 4250
Wire Wire Line
	1650 4450 1550 4450
Connection ~ 1550 4450
Wire Wire Line
	1550 4450 1550 4350
Wire Wire Line
	1650 4550 1550 4550
Connection ~ 1550 4550
Wire Wire Line
	1550 4550 1550 4450
Wire Wire Line
	1650 4650 1550 4650
Connection ~ 1550 4650
Wire Wire Line
	1550 4650 1550 4550
Wire Wire Line
	1650 4750 1550 4750
Connection ~ 1550 4750
Wire Wire Line
	1550 4750 1550 4650
Wire Wire Line
	1650 4850 1550 4850
Connection ~ 1550 4850
Wire Wire Line
	1550 4850 1550 4750
Wire Wire Line
	1550 4950 1650 4950
Connection ~ 1550 4950
Wire Wire Line
	1550 4950 1550 4850
Wire Wire Line
	1650 5050 1550 5050
Wire Wire Line
	1550 5050 1550 4950
$Comp
L power:+3.3V #PWR0106
U 1 1 5E4F6464
P 950 3850
F 0 "#PWR0106" H 950 3700 50  0001 C CNN
F 1 "+3.3V" H 965 4023 50  0000 C CNN
F 2 "" H 950 3850 50  0001 C CNN
F 3 "" H 950 3850 50  0001 C CNN
	1    950  3850
	1    0    0    -1  
$EndComp
Wire Wire Line
	950  3850 950  3950
Connection ~ 950  3950
Wire Wire Line
	1550 3850 1550 3950
Connection ~ 1550 3950
Wire Wire Line
	3650 2000 3450 2000
Text GLabel 3650 2000 2    39   BiDi ~ 0
NEOPXL
$Comp
L Connector:Conn_01x12_Female J1
U 1 1 5E3F06CF
P 1250 4450
F 0 "J1" H 1278 4380 50  0000 L CNN
F 1 "Conn_01x12_Female" H 1278 4335 50  0001 L CNN
F 2 "Connector_PinHeader_2.54mm:PinHeader_1x12_P2.54mm_Vertical" H 1250 4450 50  0001 C CNN
F 3 "~" H 1250 4450 50  0001 C CNN
	1    1250 4450
	1    0    0    -1  
$EndComp
$Comp
L Connector:Conn_01x12_Female J2
U 1 1 5E3F30E9
P 1850 4450
F 0 "J2" H 1878 4380 50  0000 L CNN
F 1 "Conn_01x12_Female" H 1878 4335 50  0001 L CNN
F 2 "Connector_PinHeader_2.54mm:PinHeader_1x12_P2.54mm_Vertical" H 1850 4450 50  0001 C CNN
F 3 "~" H 1850 4450 50  0001 C CNN
	1    1850 4450
	1    0    0    -1  
$EndComp
$Comp
L Connector:Conn_01x12_Female J3
U 1 1 5E3F4384
P 2400 4450
F 0 "J3" H 2428 4380 50  0000 L CNN
F 1 "Conn_01x12_Female" H 2428 4335 50  0001 L CNN
F 2 "Connector_PinHeader_2.54mm:PinHeader_1x12_P2.54mm_Vertical" H 2400 4450 50  0001 C CNN
F 3 "~" H 2400 4450 50  0001 C CNN
	1    2400 4450
	1    0    0    -1  
$EndComp
$Comp
L Connector:Conn_01x12_Female J4
U 1 1 5E3F7049
P 3000 4450
F 0 "J4" H 3028 4380 50  0000 L CNN
F 1 "Conn_01x12_Female" H 3028 4335 50  0001 L CNN
F 2 "Connector_PinHeader_2.54mm:PinHeader_1x12_P2.54mm_Vertical" H 3000 4450 50  0001 C CNN
F 3 "~" H 3000 4450 50  0001 C CNN
	1    3000 4450
	1    0    0    -1  
$EndComp
$Comp
L power:+3.3V #PWR0107
U 1 1 5E450350
P 1550 3850
F 0 "#PWR0107" H 1550 3700 50  0001 C CNN
F 1 "+3.3V" H 1565 4023 50  0000 C CNN
F 2 "" H 1550 3850 50  0001 C CNN
F 3 "" H 1550 3850 50  0001 C CNN
	1    1550 3850
	1    0    0    -1  
$EndComp
$Comp
L Device:C C1
U 1 1 5E3CA149
P 4500 2000
F 0 "C1" H 4615 2046 50  0000 L CNN
F 1 "10u" H 4615 1955 50  0000 L CNN
F 2 "Capacitor_SMD:C_0805_2012Metric_Pad1.15x1.40mm_HandSolder" H 4538 1850 50  0001 C CNN
F 3 "~" H 4500 2000 50  0001 C CNN
	1    4500 2000
	1    0    0    -1  
$EndComp
$Comp
L power:GND #PWR0111
U 1 1 5E3D1832
P 4500 2500
F 0 "#PWR0111" H 4500 2250 50  0001 C CNN
F 1 "GND" H 4505 2327 50  0000 C CNN
F 2 "" H 4500 2500 50  0001 C CNN
F 3 "" H 4500 2500 50  0001 C CNN
	1    4500 2500
	1    0    0    -1  
$EndComp
Wire Wire Line
	4500 2150 4500 2500
$Comp
L Connector:Conn_01x02_Female J6
U 1 1 5E3DE6EC
P 9300 1450
F 0 "J6" H 9328 1426 50  0000 L CNN
F 1 "Conn_01x02_Female" H 9328 1335 50  0000 L CNN
F 2 "Resistor_SMD:R_1218_3246Metric_Pad1.22x4.75mm_HandSolder" H 9300 1450 50  0001 C CNN
F 3 "~" H 9300 1450 50  0001 C CNN
	1    9300 1450
	1    0    0    -1  
$EndComp
$Comp
L Connector:Conn_01x02_Female J7
U 1 1 5E3DF668
P 9300 1700
F 0 "J7" H 9328 1676 50  0000 L CNN
F 1 "Conn_01x02_Female" H 9328 1585 50  0000 L CNN
F 2 "Resistor_SMD:R_1218_3246Metric_Pad1.22x4.75mm_HandSolder" H 9300 1700 50  0001 C CNN
F 3 "~" H 9300 1700 50  0001 C CNN
	1    9300 1700
	1    0    0    -1  
$EndComp
$Comp
L power:+3.3V #PWR0112
U 1 1 5E3E5722
P 9000 1350
F 0 "#PWR0112" H 9000 1200 50  0001 C CNN
F 1 "+3.3V" H 9015 1523 50  0000 C CNN
F 2 "" H 9000 1350 50  0001 C CNN
F 3 "" H 9000 1350 50  0001 C CNN
	1    9000 1350
	1    0    0    -1  
$EndComp
Wire Wire Line
	9000 1350 9000 1450
Wire Wire Line
	9000 1450 9100 1450
$Comp
L power:GND #PWR0113
U 1 1 5E3F37AF
P 9000 2250
F 0 "#PWR0113" H 9000 2000 50  0001 C CNN
F 1 "GND" H 9005 2077 50  0000 C CNN
F 2 "" H 9000 2250 50  0001 C CNN
F 3 "" H 9000 2250 50  0001 C CNN
	1    9000 2250
	1    0    0    -1  
$EndComp
Wire Wire Line
	9000 1800 9100 1800
Wire Wire Line
	9000 1800 9000 2250
Wire Wire Line
	9000 1700 9100 1700
Text GLabel 9000 1700 0    39   BiDi ~ 0
NEOPXL
$Comp
L Regulator_Switching:TPS563200 U1
U 1 1 5E429A17
P 5800 1950
F 0 "U1" H 5800 2317 50  0000 C CNN
F 1 "TPS563200DDCR" H 5800 2226 50  0000 C CNN
F 2 "Package_TO_SOT_SMD:SOT-23-6" H 5850 1700 50  0001 L CNN
F 3 "http://www.ti.com/lit/ds/symlink/tps563200.pdf" H 5800 1950 50  0001 C CNN
	1    5800 1950
	1    0    0    -1  
$EndComp
$Comp
L Device:C C2
U 1 1 5E43C476
P 4900 2000
F 0 "C2" H 5015 2046 50  0000 L CNN
F 1 "10u" H 5015 1955 50  0000 L CNN
F 2 "Capacitor_SMD:C_0805_2012Metric_Pad1.15x1.40mm_HandSolder" H 4938 1850 50  0001 C CNN
F 3 "~" H 4900 2000 50  0001 C CNN
	1    4900 2000
	1    0    0    -1  
$EndComp
$Comp
L power:GND #PWR0108
U 1 1 5E43C47C
P 4900 2500
F 0 "#PWR0108" H 4900 2250 50  0001 C CNN
F 1 "GND" H 4905 2327 50  0000 C CNN
F 2 "" H 4900 2500 50  0001 C CNN
F 3 "" H 4900 2500 50  0001 C CNN
	1    4900 2500
	1    0    0    -1  
$EndComp
Wire Wire Line
	4900 2150 4900 2500
Wire Wire Line
	4400 1850 4500 1850
Connection ~ 4500 1850
Wire Wire Line
	4500 1850 4900 1850
Connection ~ 4900 1850
Wire Wire Line
	4900 1850 5250 1850
Wire Wire Line
	5400 2050 5250 2050
Wire Wire Line
	5250 2050 5250 1850
Connection ~ 5250 1850
Wire Wire Line
	5250 1850 5400 1850
Wire Wire Line
	4400 1850 4400 1700
$Comp
L power:+BATT #PWR0109
U 1 1 5E45987C
P 4400 1700
F 0 "#PWR0109" H 4400 1550 50  0001 C CNN
F 1 "+BATT" H 4415 1873 50  0000 C CNN
F 2 "" H 4400 1700 50  0001 C CNN
F 3 "" H 4400 1700 50  0001 C CNN
	1    4400 1700
	1    0    0    -1  
$EndComp
$Comp
L Device:C C3
U 1 1 5E4718D5
P 6800 1750
F 0 "C3" H 6915 1796 50  0000 L CNN
F 1 "100n" H 6915 1705 50  0000 L CNN
F 2 "Capacitor_SMD:C_0805_2012Metric_Pad1.15x1.40mm_HandSolder" H 6838 1600 50  0001 C CNN
F 3 "~" H 6800 1750 50  0001 C CNN
	1    6800 1750
	1    0    0    -1  
$EndComp
Wire Wire Line
	6200 1950 6800 1950
Wire Wire Line
	6800 1950 6800 1900
Wire Wire Line
	6200 1850 6550 1850
Wire Wire Line
	6800 1600 6800 1550
Wire Wire Line
	6800 1550 6550 1550
Wire Wire Line
	6550 1550 6550 1850
Connection ~ 6800 1550
$Comp
L power:GND #PWR0110
U 1 1 5E4A4D95
P 5800 2500
F 0 "#PWR0110" H 5800 2250 50  0001 C CNN
F 1 "GND" H 5805 2327 50  0000 C CNN
F 2 "" H 5800 2500 50  0001 C CNN
F 3 "" H 5800 2500 50  0001 C CNN
	1    5800 2500
	1    0    0    -1  
$EndComp
Wire Wire Line
	5800 2250 5800 2500
Wire Wire Line
	6800 1550 7050 1550
$Comp
L Device:L L1
U 1 1 5E4951E5
P 7200 1550
F 0 "L1" V 7390 1550 50  0000 C CNN
F 1 "SRN8040-3R3Y" V 7299 1550 50  0000 C CNN
F 2 "Inductor_SMD:L_Bourns_SRN8040TA" H 7200 1550 50  0001 C CNN
F 3 "~" H 7200 1550 50  0001 C CNN
	1    7200 1550
	0    -1   -1   0   
$EndComp
$Comp
L Device:R R1
U 1 1 5E4B829C
P 7450 1750
F 0 "R1" H 7520 1796 50  0000 L CNN
F 1 "44.2k" H 7520 1705 50  0000 L CNN
F 2 "Resistor_SMD:R_0805_2012Metric_Pad1.15x1.40mm_HandSolder" V 7380 1750 50  0001 C CNN
F 3 "~" H 7450 1750 50  0001 C CNN
	1    7450 1750
	1    0    0    -1  
$EndComp
$Comp
L Device:R R2
U 1 1 5E4B9024
P 7450 2300
F 0 "R2" H 7520 2346 50  0000 L CNN
F 1 "10k" H 7520 2255 50  0000 L CNN
F 2 "Inductor_SMD:L_0805_2012Metric_Pad1.15x1.40mm_HandSolder" V 7380 2300 50  0001 C CNN
F 3 "~" H 7450 2300 50  0001 C CNN
	1    7450 2300
	1    0    0    -1  
$EndComp
Wire Wire Line
	6200 2050 7450 2050
Wire Wire Line
	7450 2050 7450 1900
Wire Wire Line
	7450 1600 7450 1550
Wire Wire Line
	7450 1550 7350 1550
Wire Wire Line
	7450 2050 7450 2150
Connection ~ 7450 2050
$Comp
L power:GND #PWR0114
U 1 1 5E4CE102
P 7450 2500
F 0 "#PWR0114" H 7450 2250 50  0001 C CNN
F 1 "GND" H 7455 2327 50  0000 C CNN
F 2 "" H 7450 2500 50  0001 C CNN
F 3 "" H 7450 2500 50  0001 C CNN
	1    7450 2500
	1    0    0    -1  
$EndComp
Wire Wire Line
	7450 2450 7450 2500
$Comp
L Device:C C4
U 1 1 5E4DBD33
P 7900 1750
F 0 "C4" H 8015 1796 50  0000 L CNN
F 1 "22u" H 8015 1705 50  0000 L CNN
F 2 "Capacitor_SMD:C_0805_2012Metric_Pad1.15x1.40mm_HandSolder" H 7938 1600 50  0001 C CNN
F 3 "~" H 7900 1750 50  0001 C CNN
	1    7900 1750
	1    0    0    -1  
$EndComp
Wire Wire Line
	7900 1600 7900 1550
Wire Wire Line
	7900 1550 7450 1550
Connection ~ 7450 1550
$Comp
L power:GND #PWR0115
U 1 1 5E5122B6
P 7900 2500
F 0 "#PWR0115" H 7900 2250 50  0001 C CNN
F 1 "GND" H 7905 2327 50  0000 C CNN
F 2 "" H 7900 2500 50  0001 C CNN
F 3 "" H 7900 2500 50  0001 C CNN
	1    7900 2500
	1    0    0    -1  
$EndComp
Wire Wire Line
	7900 1900 7900 2500
$Comp
L Device:C C5
U 1 1 5E5343E0
P 8350 1750
F 0 "C5" H 8465 1796 50  0000 L CNN
F 1 "22u" H 8465 1705 50  0000 L CNN
F 2 "Capacitor_SMD:C_0805_2012Metric_Pad1.15x1.40mm_HandSolder" H 8388 1600 50  0001 C CNN
F 3 "~" H 8350 1750 50  0001 C CNN
	1    8350 1750
	1    0    0    -1  
$EndComp
Wire Wire Line
	8350 1600 8350 1550
Wire Wire Line
	8350 1550 7900 1550
$Comp
L power:GND #PWR0116
U 1 1 5E5343E8
P 8350 2500
F 0 "#PWR0116" H 8350 2250 50  0001 C CNN
F 1 "GND" H 8355 2327 50  0000 C CNN
F 2 "" H 8350 2500 50  0001 C CNN
F 3 "" H 8350 2500 50  0001 C CNN
	1    8350 2500
	1    0    0    -1  
$EndComp
Wire Wire Line
	8350 1900 8350 2500
Wire Wire Line
	8350 1550 9100 1550
Connection ~ 8350 1550
Connection ~ 7900 1550
$EndSCHEMATC
