(module LOGO (layer F.Cu)
  (at 0 0)
 (fp_text reference "G***" (at 0 0) (layer F.SilkS) hide
  (effects (font (thickness 0.3)))
  )
  (fp_text value "LOGO" (at 0.75 0) (layer F.SilkS) hide
  (effects (font (thickness 0.3)))
  )
  (fp_poly (pts (xy -35.960241 -32.699394) (xy -35.781439 -32.659843) (xy -35.474073 -32.568154) (xy -35.226629 -32.445696) (xy -35.021760 -32.278696) (xy -34.842117 -32.053382) (xy -34.689594 -31.793024) (xy -34.528290 -31.534589)
     (xy -34.348446 -31.347338) (xy -34.135612 -31.217890) (xy -34.020517 -31.173357) (xy -33.914435 -31.143724) (xy -33.800969 -31.126687) (xy -33.659754 -31.121247) (xy -33.470430 -31.126410) (xy -33.278343 -31.137026)
     (xy -32.921493 -31.157818) (xy -32.635904 -31.170564) (xy -32.408475 -31.174407) (xy -32.226106 -31.168492) (xy -32.075696 -31.151961) (xy -31.944145 -31.123959) (xy -31.818353 -31.083629) (xy -31.692864 -31.033377)
     (xy -31.323235 -30.852843) (xy -31.020457 -30.651075) (xy -30.767181 -30.415711) (xy -30.674487 -30.307708) (xy -30.580605 -30.196328) (xy -30.492435 -30.109786) (xy -30.397209 -30.044000) (xy -30.282163 -29.994890)
     (xy -30.134530 -29.958375) (xy -29.941546 -29.930376) (xy -29.690444 -29.906813) (xy -29.368458 -29.883603) (xy -29.342115 -29.881831) (xy -29.043588 -29.859973) (xy -28.811726 -29.836503) (xy -28.628591 -29.806582)
     (xy -28.476242 -29.765372) (xy -28.336740 -29.708034) (xy -28.192145 -29.629730) (xy -28.026775 -29.527068) (xy -27.941580 -29.484876) (xy -27.790341 -29.422557) (xy -27.587704 -29.345630) (xy -27.348314 -29.259612)
     (xy -27.086818 -29.170023) (xy -27.021559 -29.148326) (xy -26.632995 -29.015334) (xy -26.323549 -28.899113) (xy -26.089650 -28.798231) (xy -25.927730 -28.711256) (xy -25.920892 -28.706881) (xy -25.701470 -28.552784)
     (xy -25.446734 -28.354415) (xy -25.178357 -28.130119) (xy -24.918010 -27.898245) (xy -24.687365 -27.677139) (xy -24.607337 -27.594828) (xy -24.387552 -27.364235) (xy -24.209478 -27.181898) (xy -24.057632 -27.033648)
     (xy -23.916531 -26.905313) (xy -23.770690 -26.782722) (xy -23.604628 -26.651706) (xy -23.438183 -26.524775) (xy -23.249093 -26.377974) (xy -23.074547 -26.235522) (xy -22.930765 -26.111143) (xy -22.833965 -26.018562)
     (xy -22.815564 -25.997898) (xy -22.727478 -25.867288) (xy -22.623225 -25.675962) (xy -22.511556 -25.444123) (xy -22.401220 -25.191970) (xy -22.300970 -24.939706) (xy -22.219555 -24.707532) (xy -22.165725 -24.515650)
     (xy -22.158472 -24.480946) (xy -22.119055 -24.241555) (xy -22.102871 -24.034476) (xy -22.110079 -23.826970) (xy -22.140837 -23.586301) (xy -22.163429 -23.452666) (xy -22.190640 -23.244343) (xy -22.200876 -23.011334)
     (xy -22.193531 -22.741597) (xy -22.168003 -22.423089) (xy -22.123688 -22.043768) (xy -22.075385 -21.695833) (xy -22.040547 -21.456484) (xy -22.014155 -21.289463) (xy -21.991054 -21.183529) (xy -21.966088 -21.127443)
     (xy -21.934099 -21.109966) (xy -21.889932 -21.119858) (xy -21.828431 -21.145879) (xy -21.823954 -21.147760) (xy -21.719877 -21.187863) (xy -21.650829 -21.208368) (xy -21.644276 -21.209058) (xy -21.628156 -21.171042)
     (xy -21.622168 -21.073296) (xy -21.624880 -20.986808) (xy -21.624893 -20.855629) (xy -21.603148 -20.726718) (xy -21.553122 -20.573001) (xy -21.484955 -20.406029) (xy -21.401407 -20.197056) (xy -21.311173 -19.949085)
     (xy -21.229576 -19.704874) (xy -21.204293 -19.622862) (xy -21.145949 -19.419673) (xy -21.110848 -19.265456) (xy -21.095241 -19.128936) (xy -21.095378 -18.978835) (xy -21.106070 -18.803451) (xy -21.134871 -18.408736)
     (xy -21.008730 -18.274285) (xy -20.920328 -18.163899) (xy -20.818937 -18.013879) (xy -20.743004 -17.885833) (xy -20.617271 -17.656333) (xy -20.527062 -17.487597) (xy -20.467052 -17.366233) (xy -20.431917 -17.278844)
     (xy -20.416329 -17.212038) (xy -20.414964 -17.152418) (xy -20.422496 -17.086590) (xy -20.423206 -17.081500) (xy -20.430096 -16.960179) (xy -20.417680 -16.870528) (xy -20.411529 -16.857398) (xy -20.352180 -16.826394)
     (xy -20.222629 -16.795790) (xy -20.037292 -16.768747) (xy -19.977690 -16.762276) (xy -19.786880 -16.741565) (xy -19.614338 -16.720374) (xy -19.487084 -16.702119) (xy -19.452166 -16.695849) (xy -19.307455 -16.656832)
     (xy -19.130187 -16.595581) (xy -18.941128 -16.520957) (xy -18.761045 -16.441820) (xy -18.610705 -16.367029) (xy -18.510873 -16.305445) (xy -18.488050 -16.284511) (xy -18.442899 -16.215199) (xy -18.375015 -16.094926)
     (xy -18.294216 -15.943060) (xy -18.210320 -15.778969) (xy -18.133143 -15.622019) (xy -18.072504 -15.491579) (xy -18.038218 -15.407016) (xy -18.034000 -15.388766) (xy -18.009098 -15.339438) (xy -17.947343 -15.255578)
     (xy -17.928167 -15.232280) (xy -17.858657 -15.129292) (xy -17.823417 -15.037199) (xy -17.822333 -15.024153) (xy -17.784223 -14.945626) (xy -17.677509 -14.851645) (xy -17.631512 -14.820787) (xy -17.440691 -14.699771)
     (xy -18.150095 -14.172067) (xy -18.831163 -13.659078) (xy -19.512251 -13.133901) (xy -20.173191 -12.612372) (xy -20.793811 -12.110327) (xy -21.124333 -11.836829) (xy -21.865166 -11.218040) (xy -21.958572 -11.427528)
     (xy -22.058617 -11.598491) (xy -22.190811 -11.715778) (xy -22.221837 -11.734591) (xy -22.312361 -11.796285) (xy -22.387080 -11.875882) (xy -22.460530 -11.993131) (xy -22.547246 -12.167780) (xy -22.558523 -12.192000)
     (xy -22.641664 -12.388513) (xy -22.715371 -12.593178) (xy -22.766862 -12.769607) (xy -22.775885 -12.810662) (xy -22.809021 -12.957634) (xy -22.846510 -13.046173) (xy -22.903645 -13.101802) (xy -22.972842 -13.139316)
     (xy -23.114727 -13.249958) (xy -23.214305 -13.411471) (xy -23.258687 -13.595335) (xy -23.245120 -13.741808) (xy -23.228207 -13.831517) (xy -23.232838 -13.925651) (xy -23.263002 -14.048084) (xy -23.322689 -14.222691)
     (xy -23.327801 -14.236732) (xy -23.400751 -14.469653) (xy -23.443871 -14.679168) (xy -23.452666 -14.790703) (xy -23.462773 -14.938111) (xy -23.502162 -15.041425) (xy -23.568399 -15.123333) (xy -23.684132 -15.244132)
     (xy -23.564177 -15.465885) (xy -23.507633 -15.574481) (xy -23.474723 -15.660711) (xy -23.462122 -15.750505) (xy -23.466506 -15.869796) (xy -23.484548 -16.044515) (xy -23.487093 -16.067069) (xy -23.508340 -16.427693)
     (xy -23.498699 -16.847183) (xy -23.490216 -16.975666) (xy -23.471994 -17.218373) (xy -23.453284 -17.467768) (xy -23.436511 -17.691534) (xy -23.425906 -17.833173) (xy -23.417455 -18.041903) (xy -23.430454 -18.196804)
     (xy -23.467404 -18.326564) (xy -23.469339 -18.331446) (xy -23.506810 -18.467638) (xy -23.528519 -18.656595) (xy -23.536012 -18.912776) (xy -23.536012 -18.955607) (xy -23.533486 -19.164692) (xy -23.524917 -19.310685)
     (xy -23.506656 -19.415127) (xy -23.475055 -19.499559) (xy -23.430396 -19.579166) (xy -23.365618 -19.714469) (xy -23.328950 -19.849455) (xy -23.325883 -19.887490) (xy -23.293301 -20.063294) (xy -23.208426 -20.252318)
     (xy -23.089827 -20.421443) (xy -22.964119 -20.532726) (xy -22.892169 -20.582088) (xy -22.849032 -20.633071) (xy -22.840200 -20.679833) (xy -22.775333 -20.679833) (xy -22.754166 -20.658666) (xy -22.733000 -20.679833)
     (xy -22.754166 -20.701000) (xy -22.775333 -20.679833) (xy -22.840200 -20.679833) (xy -22.836583 -20.698979) (xy -22.856697 -20.793113) (xy -22.911249 -20.928776) (xy -23.002113 -21.119270) (xy -23.064461 -21.244662)
     (xy -23.154697 -21.422332) (xy -23.222481 -21.540842) (xy -23.282661 -21.617043) (xy -23.350084 -21.667782) (xy -23.439596 -21.709910) (xy -23.493438 -21.731495) (xy -23.679412 -21.826631) (xy -23.803234 -21.945572)
     (xy -23.820788 -21.971000) (xy -23.908358 -22.100898) (xy -23.975176 -22.176854) (xy -24.044498 -22.217259) (xy -24.139578 -22.240503) (xy -24.167751 -22.245392) (xy -24.317988 -22.283981) (xy -24.389985 -22.343590)
     (xy -24.389668 -22.436953) (xy -24.379358 -22.458571) (xy -24.183228 -22.458571) (xy -24.160668 -22.437007) (xy -24.153872 -22.436666) (xy -24.006112 -22.397881) (xy -23.870384 -22.293599) (xy -23.787522 -22.175197)
     (xy -23.683308 -22.034869) (xy -23.544947 -21.931980) (xy -23.400835 -21.886893) (xy -23.384714 -21.886333) (xy -23.316189 -21.857318) (xy -23.219376 -21.783034) (xy -23.157124 -21.722939) (xy -23.072574 -21.616479)
     (xy -22.977026 -21.469002) (xy -22.879913 -21.298974) (xy -22.790668 -21.124864) (xy -22.718723 -20.965140) (xy -22.673513 -20.838269) (xy -22.664470 -20.762720) (xy -22.665330 -20.760102) (xy -22.650005 -20.744063)
     (xy -22.579700 -20.776165) (xy -22.510005 -20.820679) (xy -22.385951 -20.898793) (xy -22.274819 -20.957520) (xy -22.235583 -20.973220) (xy -22.195638 -20.987605) (xy -22.167691 -21.009531) (xy -22.151921 -21.050243)
     (xy -22.148510 -21.120987) (xy -22.157637 -21.233010) (xy -22.179485 -21.397557) (xy -22.214232 -21.625876) (xy -22.249672 -21.850824) (xy -22.316267 -22.327277) (xy -22.353973 -22.738718) (xy -22.363310 -23.099529)
     (xy -22.344799 -23.424092) (xy -22.314561 -23.643166) (xy -22.287914 -23.818303) (xy -22.277554 -23.964603) (xy -22.283822 -24.114595) (xy -22.307059 -24.300806) (xy -22.322490 -24.400986) (xy -22.354364 -24.581027)
     (xy -22.391795 -24.736288) (xy -22.442655 -24.888923) (xy -22.514814 -25.061086) (xy -22.616145 -25.274933) (xy -22.675925 -25.395819) (xy -22.962826 -25.971500) (xy -22.992322 -25.654000) (xy -23.029800 -25.395099)
     (xy -23.097565 -25.137189) (xy -23.203165 -24.855963) (xy -23.321008 -24.595666) (xy -23.419656 -24.340922) (xy -23.452869 -24.130000) (xy -23.477548 -23.862777) (xy -23.555954 -23.646778) (xy -23.695916 -23.462081)
     (xy -23.727313 -23.431500) (xy -23.876793 -23.276692) (xy -23.964060 -23.145290) (xy -24.000290 -23.018475) (xy -24.003000 -22.967209) (xy -24.021969 -22.867303) (xy -24.070521 -22.731625) (xy -24.109546 -22.646926)
     (xy -24.167181 -22.523828) (xy -24.183228 -22.458571) (xy -24.379358 -22.458571) (xy -24.322963 -22.576810) (xy -24.322395 -22.577780) (xy -24.253042 -22.727714) (xy -24.192536 -22.912178) (xy -24.165362 -23.031222)
     (xy -24.133370 -23.178759) (xy -24.088010 -23.292967) (xy -24.013105 -23.404105) (xy -23.892478 -23.542433) (xy -23.891491 -23.543507) (xy -23.754063 -23.707160) (xy -23.680676 -23.831345) (xy -23.664333 -23.905265)
     (xy -23.665651 -23.959437) (xy -23.675115 -23.984156) (xy -23.700989 -23.971745) (xy -23.751536 -23.914522) (xy -23.835021 -23.804808) (xy -23.959709 -23.634924) (xy -23.969156 -23.622000) (xy -24.127694 -23.377142)
     (xy -24.281534 -23.079688) (xy -24.430201 -22.735599) (xy -24.659166 -22.166698) (xy -25.279936 -21.523979) (xy -25.510958 -21.282516) (xy -25.690474 -21.087358) (xy -25.827428 -20.925532) (xy -25.930763 -20.784062)
     (xy -26.009424 -20.649973) (xy -26.072353 -20.510290) (xy -26.128496 -20.352038) (xy -26.162303 -20.243898) (xy -26.198184 -20.119162) (xy -26.221874 -20.009394) (xy -26.232240 -19.900396) (xy -26.228146 -19.777970)
     (xy -26.208460 -19.627918) (xy -26.172047 -19.436040) (xy -26.117773 -19.188139) (xy -26.056804 -18.923000) (xy -26.003153 -18.683851) (xy -25.954612 -18.453032) (xy -25.915686 -18.252990) (xy -25.890879 -18.106171)
     (xy -25.886919 -18.076333) (xy -25.868629 -17.930801) (xy -25.842382 -17.733634) (xy -25.812500 -17.516969) (xy -25.796829 -17.406353) (xy -25.765171 -17.142286) (xy -25.761922 -16.939548) (xy -25.796080 -16.784330)
     (xy -25.876641 -16.662820) (xy -26.012604 -16.561210) (xy -26.212966 -16.465690) (xy -26.474043 -16.366976) (xy -26.840298 -16.221663) (xy -27.127855 -16.074952) (xy -27.342663 -15.923655) (xy -27.400250 -15.870535)
     (xy -27.472553 -15.775167) (xy -27.511012 -15.658909) (xy -27.514815 -15.510564) (xy -27.483152 -15.318936) (xy -27.415211 -15.072830) (xy -27.322376 -14.795500) (xy -27.214838 -14.488258) (xy -27.133502 -14.247939)
     (xy -27.075669 -14.061883) (xy -27.038640 -13.917432) (xy -27.019715 -13.801926) (xy -27.016194 -13.702708) (xy -27.025380 -13.607119) (xy -27.044571 -13.502498) (xy -27.045595 -13.497527) (xy -27.092971 -13.329179)
     (xy -27.168068 -13.126952) (xy -27.256037 -12.930156) (xy -27.271472 -12.899546) (xy -27.364010 -12.709153) (xy -27.417258 -12.557318) (xy -27.427063 -12.427453) (xy -27.389273 -12.302971) (xy -27.299734 -12.167286)
     (xy -27.154295 -12.003811) (xy -27.010607 -11.857562) (xy -26.788890 -11.624727) (xy -26.633515 -11.429936) (xy -26.542126 -11.261741) (xy -26.512370 -11.108695) (xy -26.541892 -10.959351) (xy -26.628338 -10.802261)
     (xy -26.759581 -10.637094) (xy -26.892958 -10.473478) (xy -27.027919 -10.290084) (xy -27.122681 -10.146532) (xy -27.226015 -9.934117) (xy -27.255182 -9.749486) (xy -27.209749 -9.578809) (xy -27.099976 -9.420265)
     (xy -27.002538 -9.291859) (xy -26.913847 -9.133880) (xy -26.827933 -8.932512) (xy -26.738824 -8.673939) (xy -26.651278 -8.382000) (xy -26.577415 -8.123873) (xy -26.524906 -7.936127) (xy -26.492361 -7.807590)
     (xy -26.478390 -7.727089) (xy -26.481602 -7.683451) (xy -26.500608 -7.665502) (xy -26.534016 -7.662071) (xy -26.561728 -7.662333) (xy -26.632523 -7.676083) (xy -26.677900 -7.731776) (xy -26.713888 -7.842250)
     (xy -26.796865 -8.141319) (xy -26.884710 -8.427193) (xy -26.973203 -8.688757) (xy -27.058124 -8.914895) (xy -27.135254 -9.094490) (xy -27.200374 -9.216428) (xy -27.249263 -9.269591) (xy -27.256235 -9.271000)
     (xy -27.296687 -9.305918) (xy -27.354808 -9.395163) (xy -27.391069 -9.464397) (xy -27.454003 -9.663557) (xy -27.452053 -9.874334) (xy -27.382959 -10.103068) (xy -27.244461 -10.356100) (xy -27.034299 -10.639771)
     (xy -26.927061 -10.766212) (xy -26.812088 -10.910991) (xy -26.736709 -11.033725) (xy -26.712333 -11.110769) (xy -26.741597 -11.207800) (xy -26.820463 -11.344004) (xy -26.935540 -11.501981) (xy -27.073437 -11.664331)
     (xy -27.220764 -11.813653) (xy -27.317778 -11.897506) (xy -27.474655 -12.031981) (xy -27.571878 -12.147177) (xy -27.622882 -12.266555) (xy -27.641102 -12.413573) (xy -27.642166 -12.463941) (xy -27.632442 -12.594888)
     (xy -27.596258 -12.733651) (xy -27.526019 -12.904546) (xy -27.464737 -13.031881) (xy -27.362662 -13.252916) (xy -27.296125 -13.446562) (xy -27.265276 -13.630684) (xy -27.270268 -13.823142) (xy -27.311251 -14.041801)
     (xy -27.388377 -14.304523) (xy -27.477727 -14.562666) (xy -27.565442 -14.811387) (xy -27.626849 -15.001350) (xy -27.666643 -15.152583) (xy -27.689516 -15.285115) (xy -27.700164 -15.418974) (xy -27.702845 -15.523168)
     (xy -27.703403 -15.695756) (xy -27.695138 -15.808472) (xy -27.671027 -15.886093) (xy -27.624046 -15.953395) (xy -27.562055 -16.019784) (xy -27.411651 -16.143728) (xy -27.197376 -16.277059) (xy -26.937838 -16.410043)
     (xy -26.651645 -16.532948) (xy -26.424918 -16.614560) (xy -26.213066 -16.691984) (xy -26.072942 -16.768303) (xy -25.992926 -16.857301) (xy -25.961398 -16.972763) (xy -25.966738 -17.128473) (xy -25.969789 -17.154453)
     (xy -26.023320 -17.570696) (xy -26.072963 -17.920627) (xy -26.121788 -18.222313) (xy -26.172864 -18.493822) (xy -26.229262 -18.753222) (xy -26.270947 -18.926791) (xy -26.345851 -19.235653) (xy -26.399051 -19.478812)
     (xy -26.431527 -19.672136) (xy -26.444259 -19.831493) (xy -26.438227 -19.972753) (xy -26.414414 -20.111782) (xy -26.373798 -20.264450) (xy -26.357033 -20.320010) (xy -26.281630 -20.543857) (xy -26.197543 -20.740875)
     (xy -26.094897 -20.925812) (xy -25.963821 -21.113419) (xy -25.794438 -21.318447) (xy -25.576877 -21.555644) (xy -25.422493 -21.716062) (xy -24.865050 -22.288500) (xy -24.622632 -22.881166) (xy -24.516747 -23.133053)
     (xy -24.423987 -23.331704) (xy -24.329183 -23.503437) (xy -24.217167 -23.674567) (xy -24.072771 -23.871410) (xy -23.988217 -23.981833) (xy -23.707120 -24.370678) (xy -23.495112 -24.722295) (xy -23.349702 -25.044678)
     (xy -23.268400 -25.345819) (xy -23.248716 -25.633712) (xy -23.288160 -25.916349) (xy -23.335603 -26.076614) (xy -23.380354 -26.196420) (xy -23.427188 -26.290027) (xy -23.490191 -26.374303) (xy -23.583449 -26.466117)
     (xy -23.721045 -26.582337) (xy -23.833797 -26.673245) (xy -24.035116 -26.843828) (xy -24.251549 -27.042342) (xy -24.451337 -27.239028) (xy -24.553464 -27.347610) (xy -24.806183 -27.609128) (xy -25.108758 -27.891788)
     (xy -25.437496 -28.174793) (xy -25.768701 -28.437345) (xy -25.930781 -28.556562) (xy -26.041950 -28.630645) (xy -26.161840 -28.697671) (xy -26.304816 -28.763707) (xy -26.485244 -28.834819) (xy -26.717489 -28.917073)
     (xy -27.015915 -29.016536) (xy -27.033934 -29.022430) (xy -27.398996 -29.147116) (xy -27.731827 -29.271270) (xy -28.016234 -29.388530) (xy -28.236026 -29.492536) (xy -28.251676 -29.500810) (xy -28.638500 -29.707586)
     (xy -29.252333 -29.733344) (xy -29.623022 -29.752046) (xy -29.921135 -29.776211) (xy -30.158743 -29.809667) (xy -30.347921 -29.856242) (xy -30.500743 -29.919763) (xy -30.629282 -30.004057) (xy -30.745612 -30.112953)
     (xy -30.854763 -30.241351) (xy -31.068736 -30.467645) (xy -31.330598 -30.660542) (xy -31.655684 -30.830613) (xy -31.795690 -30.890126) (xy -32.043757 -30.973347) (xy -32.285547 -31.014235) (xy -32.547161 -31.014573)
     (xy -32.854696 -30.976142) (xy -32.911297 -30.966264) (xy -33.300313 -30.918907) (xy -33.670009 -30.917498) (xy -33.999981 -30.961351) (xy -34.168648 -31.008485) (xy -34.380099 -31.108939) (xy -34.565130 -31.257937)
     (xy -34.735628 -31.467422) (xy -34.900721 -31.744140) (xy -35.029972 -31.969267) (xy -35.144581 -32.126827) (xy -35.254474 -32.230275) (xy -35.264740 -32.237577) (xy -35.427585 -32.327775) (xy -35.633362 -32.410628)
     (xy -35.848002 -32.474849) (xy -36.037438 -32.509150) (xy -36.092938 -32.512000) (xy -36.191499 -32.520403) (xy -36.231155 -32.557872) (xy -36.237333 -32.617833) (xy -36.226566 -32.681108) (xy -36.185528 -32.714988)
     (xy -36.101120 -32.720681) (xy -35.960241 -32.699394) )(layer F.SilkS) (width  0.010000)
  )
)
